<?xml version="1.0" encoding="utf-8"?>
<!-- Generator: Adobe Illustrator 22.1.0, SVG Export Plug-In . SVG Version: 6.00 Build 0)  -->
<svg version="1.1" id="Layer_1" class="icon" fill="currentColor" xmlns="http://www.w3.org/2000/svg"  xmlns:xlink="http://www.w3.org/1999/xlink" x="0px" y="0px"
	 viewBox="0 0 24 24" style="enable-background:new 0 0 24 24;" xml:space="preserve">
<title>download_from_cloud</title>
<path d="M17.9,9C17.4,6.2,15,4,12,4c-3.3,0-6,2.7-6,6c-2.8,0-5,2.2-5,5s2.2,5,5,5h11.5c3,0,5.5-2.5,5.5-5.5C23,11.6,20.8,9.2,17.9,9z M15.9,13.3l-3.5,3.5c-0.2,0.2-0.5,0.2-0.7,0l-3.5-3.5c-0.2-0.2-0.2-0.5,0-0.7l0.2-0.2c0.1-0.1,0.2-0.1,0.4-0.1H10V8.5C10,8.2,10.2,8,10.5,8h3C13.8,8,14,8.2,14,8.5v3.8h1.3c0.1,0,0.3,0.1,0.4,0.1l0.2,0.2C16.1,12.8,16.1,13.1,15.9,13.3z"/>
</svg>
