<?xml version="1.0" encoding="utf-8"?>
<!-- Generator: Adobe Illustrator 22.1.0, SVG Export Plug-In . SVG Version: 6.00 Build 0)  -->
<svg version="1.1" id="Layer_1" class="icon" fill="currentColor" xmlns="http://www.w3.org/2000/svg"  xmlns:xlink="http://www.w3.org/1999/xlink" x="0px" y="0px"
	 viewBox="0 0 24 24" style="enable-background:new 0 0 24 24;" xml:space="preserve">
<title>upload_on_cloud</title>
<path d="M17.9,9C17.4,6.2,15,4,12,4c-3.3,0-6,2.7-6,6c-2.8,0-5,2.2-5,5s2.2,5,5,5h11.5c3,0,5.5-2.5,5.5-5.5C23,11.6,20.8,9.2,17.9,9z M15.9,12.4l-0.2,0.2c-0.1,0.1-0.2,0.1-0.4,0.1H14v3.8c0,0.3-0.2,0.5-0.5,0.5h-3c-0.3,0-0.5-0.2-0.5-0.5v-3.8H8.7c-0.1,0-0.3-0.1-0.4-0.1l-0.2-0.2c-0.2-0.2-0.2-0.5,0-0.7l3.5-3.5c0.2-0.2,0.5-0.2,0.7,0l3.5,3.5C16.1,11.9,16.1,12.2,15.9,12.4z"/>
</svg>
