<?xml version="1.0" encoding="utf-8"?>
<!-- Generator: Adobe Illustrator 22.1.0, SVG Export Plug-In . SVG Version: 6.00 Build 0)  -->
<svg version="1.1" id="Layer_1" class="icon" fill="currentColor" xmlns="http://www.w3.org/2000/svg"  xmlns:xlink="http://www.w3.org/1999/xlink" x="0px" y="0px"
	 viewBox="0 0 24 24" style="enable-background:new 0 0 24 24;" xml:space="preserve">
<title>appstore</title>
<path d="M4.2,19l-0.1,0.1c-0.4,0.6-0.2,1.4,0.4,1.7s1.4,0.2,1.7-0.4c0,0,0.1-0.1,0.1-0.1l1.2-2.1h-2C5,18.2,4.5,18.5,4.2,19zM11.7,14.5h-2l5.6-9.6c0.4-0.6,0.2-1.4-0.4-1.7s-1.4-0.2-1.7,0.4c0,0-0.1,0.1-0.1,0.1L12,5.6l-1.1-1.9C10.6,3,9.8,2.8,9.2,3.1S8.3,4.1,8.7,4.8c0,0,0,0.1,0.1,0.1l1.8,3.2l-3.7,6.4H3.2c-0.7,0-1.2,0.6-1.2,1.2C2,16.4,2.6,17,3.2,17h11l-0.9-1.5C13,14.9,12.4,14.5,11.7,14.5z M20.8,14.5h-3.6l-3-5.2l-0.6,1c-0.5,0.9-0.5,2.1,0,3l4.1,7.1c0.3,0.6,1.1,0.9,1.7,0.6c0.6-0.3,0.9-1.1,0.6-1.7c0,0,0-0.1-0.1-0.1L18.6,17h2.1c0.7,0,1.2-0.6,1.2-1.2C22,15.1,21.4,14.5,20.8,14.5z"/>
</svg>
