<?xml version="1.0" encoding="utf-8"?>
<!-- Generator: Adobe Illustrator 22.1.0, SVG Export Plug-In . SVG Version: 6.00 Build 0)  -->
<svg version="1.1" id="Layer_1" class="icon" fill="currentColor" xmlns="http://www.w3.org/2000/svg"  xmlns:xlink="http://www.w3.org/1999/xlink" x="0px" y="0px"
	 viewBox="0 0 24 24" style="enable-background:new 0 0 24 24;" xml:space="preserve">
<title>google_play</title>
<path d="M16.6,15.7l5-2.9c0.2-0.1,0.4-0.4,0.4-0.6v-0.3c0-0.3-0.1-0.5-0.4-0.6l-5-2.9L13.3,12L16.6,15.7z M12.5,11.1l3-3.4L4.4,1.1C4.2,1,4,1,3.8,1.1L12.5,11.1z M12.5,13L3.8,23c0.2,0.1,0.4,0.1,0.6,0l11.1-6.5L12.5,13z M3,2.1v19.8l8.7-9.9L3,2.1z"/>
</svg>
